

--------------------sim 0 -----------------

injection rate = 0.02


packets_injected = 6398                      
packets_received = 6376                      
average_packet_latency = 36.180834                      
flits_injected = 15078                      
flits_received = 15028                      
average_flit_latency = 36.177469                      
total_probes_sent = 0                      
total_disables_sent = 0                      
total_enables_sent = 0                      
total_check_probes_sent = 0                      
total_probes_dropped = 0                      
total_disables_dropped = 0                      
total_enables_dropped = 0                      
total_check_probes_dropped = 0                      
total_sb_switched_on = 0                      
network_max_deadlock_path_length = 0                      
network_deadlock_path_length_sum = 0                      
total_sb_vc_copy = 0                      
probe_link_utilisation = 0                      
system.ruby.network.check_probe_link_utilisation            0                      
disable_link_utilisation = 0                      
enable_link_utilisation = 0                      
check_probe_link_utilisation = 0                      
flit_link_utilisation = 160800                      
link_utilization = 160800                      

---------------------------------end------------------------------------


--------------------sim 1 -----------------

injection rate = 0.04


packets_injected = 12600                      
packets_received = 12541                      
average_packet_latency = 42.773064                      
flits_injected = 29364                      
flits_received = 29214                      
average_flit_latency = 42.575272                      
total_probes_sent = 0                      
total_disables_sent = 0                      
total_enables_sent = 0                      
total_check_probes_sent = 0                      
total_probes_dropped = 0                      
total_disables_dropped = 0                      
total_enables_dropped = 0                      
total_check_probes_dropped = 0                      
total_sb_switched_on = 0                      
network_max_deadlock_path_length = 0                      
network_deadlock_path_length_sum = 0                      
total_sb_vc_copy = 0                      
probe_link_utilisation = 0                      
system.ruby.network.check_probe_link_utilisation            0                      
disable_link_utilisation = 0                      
enable_link_utilisation = 0                      
check_probe_link_utilisation = 0                      
flit_link_utilisation = 315183                      
link_utilization = 315183                      

---------------------------------end------------------------------------


--------------------sim 2 -----------------

injection rate = 0.06


packets_injected = 17654                      
packets_received = 17231                      
average_packet_latency = 201.149150                      
flits_injected = 37310                      
flits_received = 35524                      
average_flit_latency = 397.521535                      
total_probes_sent = 0                      
total_disables_sent = 0                      
total_enables_sent = 0                      
total_check_probes_sent = 0                      
total_probes_dropped = 0                      
total_disables_dropped = 0                      
total_enables_dropped = 0                      
total_check_probes_dropped = 0                      
total_sb_switched_on = 0                      
network_max_deadlock_path_length = 0                      
network_deadlock_path_length_sum = 0                      
total_sb_vc_copy = 0                      
probe_link_utilisation = 0                      
system.ruby.network.check_probe_link_utilisation            0                      
disable_link_utilisation = 0                      
enable_link_utilisation = 0                      
check_probe_link_utilisation = 0                      
flit_link_utilisation = 371878                      
link_utilization = 371878                      

---------------------------------end------------------------------------


--------------------sim 3 -----------------

injection rate = 0.08


packets_injected = 20754                      
packets_received = 20226                      
average_packet_latency = 228.862355                      
flits_injected = 36006                      
flits_received = 33758                      
average_flit_latency = 565.926447                      
total_probes_sent = 0                      
total_disables_sent = 0                      
total_enables_sent = 0                      
total_check_probes_sent = 0                      
total_probes_dropped = 0                      
total_disables_dropped = 0                      
total_enables_dropped = 0                      
total_check_probes_dropped = 0                      
total_sb_switched_on = 0                      
network_max_deadlock_path_length = 0                      
network_deadlock_path_length_sum = 0                      
total_sb_vc_copy = 0                      
probe_link_utilisation = 0                      
system.ruby.network.check_probe_link_utilisation            0                      
disable_link_utilisation = 0                      
enable_link_utilisation = 0                      
check_probe_link_utilisation = 0                      
flit_link_utilisation = 347159                      
link_utilization = 347159                      

---------------------------------end------------------------------------


--------------------sim 4 -----------------

injection rate = 0.1


packets_injected = 24312                      
packets_received = 23649                      
average_packet_latency = 207.241406                      
flits_injected = 36424                      
flits_received = 33725                      
average_flit_latency = 553.149741                      
total_probes_sent = 0                      
total_disables_sent = 0                      
total_enables_sent = 0                      
total_check_probes_sent = 0                      
total_probes_dropped = 0                      
total_disables_dropped = 0                      
total_enables_dropped = 0                      
total_check_probes_dropped = 0                      
total_sb_switched_on = 0                      
network_max_deadlock_path_length = 0                      
network_deadlock_path_length_sum = 0                      
total_sb_vc_copy = 0                      
probe_link_utilisation = 0                      
system.ruby.network.check_probe_link_utilisation            0                      
disable_link_utilisation = 0                      
enable_link_utilisation = 0                      
check_probe_link_utilisation = 0                      
flit_link_utilisation = 347619                      
link_utilization = 347619                      

---------------------------------end------------------------------------


--------------------sim 5 -----------------

injection rate = 0.12


packets_injected = 26697                      
packets_received = 25715                      
average_packet_latency = 440.934124                      
flits_injected = 37177                      
flits_received = 34119                      
average_flit_latency = 928.769835                      
total_probes_sent = 0                      
total_disables_sent = 0                      
total_enables_sent = 0                      
total_check_probes_sent = 0                      
total_probes_dropped = 0                      
total_disables_dropped = 0                      
total_enables_dropped = 0                      
total_check_probes_dropped = 0                      
total_sb_switched_on = 0                      
network_max_deadlock_path_length = 0                      
network_deadlock_path_length_sum = 0                      
total_sb_vc_copy = 0                      
probe_link_utilisation = 0                      
system.ruby.network.check_probe_link_utilisation            0                      
disable_link_utilisation = 0                      
enable_link_utilisation = 0                      
check_probe_link_utilisation = 0                      
flit_link_utilisation = 355870                      
link_utilization = 355870                      

---------------------------------end------------------------------------


--------------------sim 6 -----------------

injection rate = 0.14


packets_injected = 26070                      
packets_received = 24913                      
average_packet_latency = 590.606872                      
flits_injected = 36374                      
flits_received = 33144                      
average_flit_latency = 1106.096186                      
total_probes_sent = 0                      
total_disables_sent = 0                      
total_enables_sent = 0                      
total_check_probes_sent = 0                      
total_probes_dropped = 0                      
total_disables_dropped = 0                      
total_enables_dropped = 0                      
total_check_probes_dropped = 0                      
total_sb_switched_on = 0                      
network_max_deadlock_path_length = 0                      
network_deadlock_path_length_sum = 0                      
total_sb_vc_copy = 0                      
probe_link_utilisation = 0                      
system.ruby.network.check_probe_link_utilisation            0                      
disable_link_utilisation = 0                      
enable_link_utilisation = 0                      
check_probe_link_utilisation = 0                      
flit_link_utilisation = 332516                      
link_utilization = 332516                      

---------------------------------end------------------------------------


--------------------sim 7 -----------------

injection rate = 0.16


packets_injected = 26114                      
packets_received = 25045                      
average_packet_latency = 775.608545                      
flits_injected = 35866                      
flits_received = 32681                      
average_flit_latency = 1282.716930                      
total_probes_sent = 0                      
total_disables_sent = 0                      
total_enables_sent = 0                      
total_check_probes_sent = 0                      
total_probes_dropped = 0                      
total_disables_dropped = 0                      
total_enables_dropped = 0                      
total_check_probes_dropped = 0                      
total_sb_switched_on = 0                      
network_max_deadlock_path_length = 0                      
network_deadlock_path_length_sum = 0                      
total_sb_vc_copy = 0                      
probe_link_utilisation = 0                      
system.ruby.network.check_probe_link_utilisation            0                      
disable_link_utilisation = 0                      
enable_link_utilisation = 0                      
check_probe_link_utilisation = 0                      
flit_link_utilisation = 323433                      
link_utilization = 323433                      

---------------------------------end------------------------------------


--------------------sim 8 -----------------

injection rate = 0.18


packets_injected = 25494                      
packets_received = 24371                      
average_packet_latency = 841.186164                      
flits_injected = 35414                      
flits_received = 32201                      
average_flit_latency = 1382.436477                      
total_probes_sent = 0                      
total_disables_sent = 0                      
total_enables_sent = 0                      
total_check_probes_sent = 0                      
total_probes_dropped = 0                      
total_disables_dropped = 0                      
total_enables_dropped = 0                      
total_check_probes_dropped = 0                      
total_sb_switched_on = 0                      
network_max_deadlock_path_length = 0                      
network_deadlock_path_length_sum = 0                      
total_sb_vc_copy = 0                      
probe_link_utilisation = 0                      
system.ruby.network.check_probe_link_utilisation            0                      
disable_link_utilisation = 0                      
enable_link_utilisation = 0                      
check_probe_link_utilisation = 0                      
flit_link_utilisation = 310959                      
link_utilization = 310959                      

---------------------------------end------------------------------------


--------------------sim 9 -----------------

injection rate = 0.2


packets_injected = 24886                      
packets_received = 23718                      
average_packet_latency = 970.037609                      
flits_injected = 34822                      
flits_received = 31589                      
average_flit_latency = 1589.992466                      
total_probes_sent = 0                      
total_disables_sent = 0                      
total_enables_sent = 0                      
total_check_probes_sent = 0                      
total_probes_dropped = 0                      
total_disables_dropped = 0                      
total_enables_dropped = 0                      
total_check_probes_dropped = 0                      
total_sb_switched_on = 0                      
network_max_deadlock_path_length = 0                      
network_deadlock_path_length_sum = 0                      
total_sb_vc_copy = 0                      
probe_link_utilisation = 0                      
system.ruby.network.check_probe_link_utilisation            0                      
disable_link_utilisation = 0                      
enable_link_utilisation = 0                      
check_probe_link_utilisation = 0                      
flit_link_utilisation = 303840                      
link_utilization = 303840                      

---------------------------------end------------------------------------


--------------------sim 10 -----------------

injection rate = 0.22


packets_injected = 23807                      
packets_received = 22729                      
average_packet_latency = 1127.963175                      
flits_injected = 33475                      
flits_received = 30360                      
average_flit_latency = 1757.960935                      
total_probes_sent = 0                      
total_disables_sent = 0                      
total_enables_sent = 0                      
total_check_probes_sent = 0                      
total_probes_dropped = 0                      
total_disables_dropped = 0                      
total_enables_dropped = 0                      
total_check_probes_dropped = 0                      
total_sb_switched_on = 0                      
network_max_deadlock_path_length = 0                      
network_deadlock_path_length_sum = 0                      
total_sb_vc_copy = 0                      
probe_link_utilisation = 0                      
system.ruby.network.check_probe_link_utilisation            0                      
disable_link_utilisation = 0                      
enable_link_utilisation = 0                      
check_probe_link_utilisation = 0                      
flit_link_utilisation = 292873                      
link_utilization = 292873                      

---------------------------------end------------------------------------


--------------------sim 11 -----------------

injection rate = 0.24


packets_injected = 23087                      
packets_received = 21993                      
average_packet_latency = 1224.810849                      
flits_injected = 32843                      
flits_received = 29703                      
average_flit_latency = 1846.249537                      
total_probes_sent = 0                      
total_disables_sent = 0                      
total_enables_sent = 0                      
total_check_probes_sent = 0                      
total_probes_dropped = 0                      
total_disables_dropped = 0                      
total_enables_dropped = 0                      
total_check_probes_dropped = 0                      
total_sb_switched_on = 0                      
network_max_deadlock_path_length = 0                      
network_deadlock_path_length_sum = 0                      
total_sb_vc_copy = 0                      
probe_link_utilisation = 0                      
system.ruby.network.check_probe_link_utilisation            0                      
disable_link_utilisation = 0                      
enable_link_utilisation = 0                      
check_probe_link_utilisation = 0                      
flit_link_utilisation = 281746                      
link_utilization = 281746                      

---------------------------------end------------------------------------


--------------------sim 12 -----------------

injection rate = 0.26


packets_injected = 22619                      
packets_received = 21437                      
average_packet_latency = 1243.108924                      
flits_injected = 32403                      
flits_received = 29295                      
average_flit_latency = 1952.803414                      
total_probes_sent = 0                      
total_disables_sent = 0                      
total_enables_sent = 0                      
total_check_probes_sent = 0                      
total_probes_dropped = 0                      
total_disables_dropped = 0                      
total_enables_dropped = 0                      
total_check_probes_dropped = 0                      
total_sb_switched_on = 0                      
network_max_deadlock_path_length = 0                      
network_deadlock_path_length_sum = 0                      
total_sb_vc_copy = 0                      
probe_link_utilisation = 0                      
system.ruby.network.check_probe_link_utilisation            0                      
disable_link_utilisation = 0                      
enable_link_utilisation = 0                      
check_probe_link_utilisation = 0                      
flit_link_utilisation = 273952                      
link_utilization = 273952                      

---------------------------------end------------------------------------


--------------------sim 13 -----------------

injection rate = 0.28


packets_injected = 22149                      
packets_received = 21006                      
average_packet_latency = 1399.421356                      
flits_injected = 31857                      
flits_received = 28956                      
average_flit_latency = 2142.216639                      
total_probes_sent = 0                      
total_disables_sent = 0                      
total_enables_sent = 0                      
total_check_probes_sent = 0                      
total_probes_dropped = 0                      
total_disables_dropped = 0                      
total_enables_dropped = 0                      
total_check_probes_dropped = 0                      
total_sb_switched_on = 0                      
network_max_deadlock_path_length = 0                      
network_deadlock_path_length_sum = 0                      
total_sb_vc_copy = 0                      
probe_link_utilisation = 0                      
system.ruby.network.check_probe_link_utilisation            0                      
disable_link_utilisation = 0                      
enable_link_utilisation = 0                      
check_probe_link_utilisation = 0                      
flit_link_utilisation = 269785                      
link_utilization = 269785                      

---------------------------------end------------------------------------


--------------------sim 14 -----------------

injection rate = 0.3


packets_injected = 22283                      
packets_received = 21222                      
average_packet_latency = 1505.449015                      
flits_injected = 31835                      
flits_received = 29001                      
average_flit_latency = 2144.738802                      
total_probes_sent = 0                      
total_disables_sent = 0                      
total_enables_sent = 0                      
total_check_probes_sent = 0                      
total_probes_dropped = 0                      
total_disables_dropped = 0                      
total_enables_dropped = 0                      
total_check_probes_dropped = 0                      
total_sb_switched_on = 0                      
network_max_deadlock_path_length = 0                      
network_deadlock_path_length_sum = 0                      
total_sb_vc_copy = 0                      
probe_link_utilisation = 0                      
system.ruby.network.check_probe_link_utilisation            0                      
disable_link_utilisation = 0                      
enable_link_utilisation = 0                      
check_probe_link_utilisation = 0                      
flit_link_utilisation = 271439                      
link_utilization = 271439                      

---------------------------------end------------------------------------


--------------------sim 15 -----------------

injection rate = 0.32


packets_injected = 21897                      
packets_received = 20862                      
average_packet_latency = 1688.868277                      
flits_injected = 31609                      
flits_received = 28725                      
average_flit_latency = 2327.785901                      
total_probes_sent = 0                      
total_disables_sent = 0                      
total_enables_sent = 0                      
total_check_probes_sent = 0                      
total_probes_dropped = 0                      
total_disables_dropped = 0                      
total_enables_dropped = 0                      
total_check_probes_dropped = 0                      
total_sb_switched_on = 0                      
network_max_deadlock_path_length = 0                      
network_deadlock_path_length_sum = 0                      
total_sb_vc_copy = 0                      
probe_link_utilisation = 0                      
system.ruby.network.check_probe_link_utilisation            0                      
disable_link_utilisation = 0                      
enable_link_utilisation = 0                      
check_probe_link_utilisation = 0                      
flit_link_utilisation = 270811                      
link_utilization = 270811                      

---------------------------------end------------------------------------


--------------------sim 16 -----------------

injection rate = 0.34


packets_injected = 21985                      
packets_received = 20927                      
average_packet_latency = 1809.367611                      
flits_injected = 31837                      
flits_received = 28902                      
average_flit_latency = 2423.643692                      
total_probes_sent = 0                      
total_disables_sent = 0                      
total_enables_sent = 0                      
total_check_probes_sent = 0                      
total_probes_dropped = 0                      
total_disables_dropped = 0                      
total_enables_dropped = 0                      
total_check_probes_dropped = 0                      
total_sb_switched_on = 0                      
network_max_deadlock_path_length = 0                      
network_deadlock_path_length_sum = 0                      
total_sb_vc_copy = 0                      
probe_link_utilisation = 0                      
system.ruby.network.check_probe_link_utilisation            0                      
disable_link_utilisation = 0                      
enable_link_utilisation = 0                      
check_probe_link_utilisation = 0                      
flit_link_utilisation = 272669                      
link_utilization = 272669                      

---------------------------------end------------------------------------


--------------------sim 17 -----------------

injection rate = 0.36


packets_injected = 21795                      
packets_received = 20743                      
average_packet_latency = 1920.604590                      
flits_injected = 31243                      
flits_received = 28417                      
average_flit_latency = 2484.717951                      
total_probes_sent = 0                      
total_disables_sent = 0                      
total_enables_sent = 0                      
total_check_probes_sent = 0                      
total_probes_dropped = 0                      
total_disables_dropped = 0                      
total_enables_dropped = 0                      
total_check_probes_dropped = 0                      
total_sb_switched_on = 0                      
network_max_deadlock_path_length = 0                      
network_deadlock_path_length_sum = 0                      
total_sb_vc_copy = 0                      
probe_link_utilisation = 0                      
system.ruby.network.check_probe_link_utilisation            0                      
disable_link_utilisation = 0                      
enable_link_utilisation = 0                      
check_probe_link_utilisation = 0                      
flit_link_utilisation = 263072                      
link_utilization = 263072                      

---------------------------------end------------------------------------


--------------------sim 18 -----------------

injection rate = 0.38


packets_injected = 21962                      
packets_received = 20897                      
average_packet_latency = 2368.684404                      
flits_injected = 31982                      
flits_received = 29031                      
average_flit_latency = 2828.698391                      
total_probes_sent = 0                      
total_disables_sent = 0                      
total_enables_sent = 0                      
total_check_probes_sent = 0                      
total_probes_dropped = 0                      
total_disables_dropped = 0                      
total_enables_dropped = 0                      
total_check_probes_dropped = 0                      
total_sb_switched_on = 0                      
network_max_deadlock_path_length = 0                      
network_deadlock_path_length_sum = 0                      
total_sb_vc_copy = 0                      
probe_link_utilisation = 0                      
system.ruby.network.check_probe_link_utilisation            0                      
disable_link_utilisation = 0                      
enable_link_utilisation = 0                      
check_probe_link_utilisation = 0                      
flit_link_utilisation = 278345                      
link_utilization = 278345                      

---------------------------------end------------------------------------


--------------------sim 19 -----------------

injection rate = 0.4


packets_injected = 22072                      
packets_received = 21011                      
average_packet_latency = 2354.919709                      
flits_injected = 32008                      
flits_received = 29096                      
average_flit_latency = 2810.177344                      
total_probes_sent = 0                      
total_disables_sent = 0                      
total_enables_sent = 0                      
total_check_probes_sent = 0                      
total_probes_dropped = 0                      
total_disables_dropped = 0                      
total_enables_dropped = 0                      
total_check_probes_dropped = 0                      
total_sb_switched_on = 0                      
network_max_deadlock_path_length = 0                      
network_deadlock_path_length_sum = 0                      
total_sb_vc_copy = 0                      
probe_link_utilisation = 0                      
system.ruby.network.check_probe_link_utilisation            0                      
disable_link_utilisation = 0                      
enable_link_utilisation = 0                      
check_probe_link_utilisation = 0                      
flit_link_utilisation = 279108                      
link_utilization = 279108                      

---------------------------------end------------------------------------


--------------------sim 20 -----------------

injection rate = 0.42


packets_injected = 21800                      
packets_received = 20729                      
average_packet_latency = 2351.618216                      
flits_injected = 31532                      
flits_received = 28669                      
average_flit_latency = 2842.016150                      
total_probes_sent = 0                      
total_disables_sent = 0                      
total_enables_sent = 0                      
total_check_probes_sent = 0                      
total_probes_dropped = 0                      
total_disables_dropped = 0                      
total_enables_dropped = 0                      
total_check_probes_dropped = 0                      
total_sb_switched_on = 0                      
network_max_deadlock_path_length = 0                      
network_deadlock_path_length_sum = 0                      
total_sb_vc_copy = 0                      
probe_link_utilisation = 0                      
system.ruby.network.check_probe_link_utilisation            0                      
disable_link_utilisation = 0                      
enable_link_utilisation = 0                      
check_probe_link_utilisation = 0                      
flit_link_utilisation = 265689                      
link_utilization = 265689                      

---------------------------------end------------------------------------


--------------------sim 21 -----------------

injection rate = 0.44


packets_injected = 21561                      
packets_received = 20497                      
average_packet_latency = 2346.866712                      
flits_injected = 31393                      
flits_received = 28592                      
average_flit_latency = 2886.630246                      
total_probes_sent = 0                      
total_disables_sent = 0                      
total_enables_sent = 0                      
total_check_probes_sent = 0                      
total_probes_dropped = 0                      
total_disables_dropped = 0                      
total_enables_dropped = 0                      
total_check_probes_dropped = 0                      
total_sb_switched_on = 0                      
network_max_deadlock_path_length = 0                      
network_deadlock_path_length_sum = 0                      
total_sb_vc_copy = 0                      
probe_link_utilisation = 0                      
system.ruby.network.check_probe_link_utilisation            0                      
disable_link_utilisation = 0                      
enable_link_utilisation = 0                      
check_probe_link_utilisation = 0                      
flit_link_utilisation = 268095                      
link_utilization = 268095                      

---------------------------------end------------------------------------


--------------------sim 22 -----------------

injection rate = 0.46


packets_injected = 21033                      
packets_received = 20029                      
average_packet_latency = 2509.622248                      
flits_injected = 30805                      
flits_received = 28255                      
average_flit_latency = 2984.100301                      
total_probes_sent = 0                      
total_disables_sent = 0                      
total_enables_sent = 0                      
total_check_probes_sent = 0                      
total_probes_dropped = 0                      
total_disables_dropped = 0                      
total_enables_dropped = 0                      
total_check_probes_dropped = 0                      
total_sb_switched_on = 0                      
network_max_deadlock_path_length = 0                      
network_deadlock_path_length_sum = 0                      
total_sb_vc_copy = 0                      
probe_link_utilisation = 0                      
system.ruby.network.check_probe_link_utilisation            0                      
disable_link_utilisation = 0                      
enable_link_utilisation = 0                      
check_probe_link_utilisation = 0                      
flit_link_utilisation = 259924                      
link_utilization = 259924                      

---------------------------------end------------------------------------


--------------------sim 23 -----------------

injection rate = 0.48


packets_injected = 21025                      
packets_received = 20088                      
average_packet_latency = 2559.333881                      
flits_injected = 30573                      
flits_received = 28367                      
average_flit_latency = 3047.060563                      
total_probes_sent = 0                      
total_disables_sent = 0                      
total_enables_sent = 0                      
total_check_probes_sent = 0                      
total_probes_dropped = 0                      
total_disables_dropped = 0                      
total_enables_dropped = 0                      
total_check_probes_dropped = 0                      
total_sb_switched_on = 0                      
network_max_deadlock_path_length = 0                      
network_deadlock_path_length_sum = 0                      
total_sb_vc_copy = 0                      
probe_link_utilisation = 0                      
system.ruby.network.check_probe_link_utilisation            0                      
disable_link_utilisation = 0                      
enable_link_utilisation = 0                      
check_probe_link_utilisation = 0                      
flit_link_utilisation = 259913                      
link_utilization = 259913                      

---------------------------------end------------------------------------


--------------------sim 24 -----------------

injection rate = 0.5


packets_injected = 21764                      
packets_received = 20643                      
average_packet_latency = 2758.960132                      
flits_injected = 31348                      
flits_received = 28369                      
average_flit_latency = 3140.332934                      
total_probes_sent = 0                      
total_disables_sent = 0                      
total_enables_sent = 0                      
total_check_probes_sent = 0                      
total_probes_dropped = 0                      
total_disables_dropped = 0                      
total_enables_dropped = 0                      
total_check_probes_dropped = 0                      
total_sb_switched_on = 0                      
network_max_deadlock_path_length = 0                      
network_deadlock_path_length_sum = 0                      
total_sb_vc_copy = 0                      
probe_link_utilisation = 0                      
system.ruby.network.check_probe_link_utilisation            0                      
disable_link_utilisation = 0                      
enable_link_utilisation = 0                      
check_probe_link_utilisation = 0                      
flit_link_utilisation = 271520                      
link_utilization = 271520                      

---------------------------------end------------------------------------


--------------------sim 25 -----------------

injection rate = 0.52


packets_injected = 21324                      
packets_received = 20322                      
average_packet_latency = 2849.222468                      
flits_injected = 31152                      
flits_received = 28519                      
average_flit_latency = 3274.004593                      
total_probes_sent = 0                      
total_disables_sent = 0                      
total_enables_sent = 0                      
total_check_probes_sent = 0                      
total_probes_dropped = 0                      
total_disables_dropped = 0                      
total_enables_dropped = 0                      
total_check_probes_dropped = 0                      
total_sb_switched_on = 0                      
network_max_deadlock_path_length = 0                      
network_deadlock_path_length_sum = 0                      
total_sb_vc_copy = 0                      
probe_link_utilisation = 0                      
system.ruby.network.check_probe_link_utilisation            0                      
disable_link_utilisation = 0                      
enable_link_utilisation = 0                      
check_probe_link_utilisation = 0                      
flit_link_utilisation = 264088                      
link_utilization = 264088                      

---------------------------------end------------------------------------


--------------------sim 26 -----------------

injection rate = 0.54


packets_injected = 20987                      
packets_received = 19903                      
average_packet_latency = 2905.481988                      
flits_injected = 30859                      
flits_received = 28000                      
average_flit_latency = 3300.393036                      
total_probes_sent = 0                      
total_disables_sent = 0                      
total_enables_sent = 0                      
total_check_probes_sent = 0                      
total_probes_dropped = 0                      
total_disables_dropped = 0                      
total_enables_dropped = 0                      
total_check_probes_dropped = 0                      
total_sb_switched_on = 0                      
network_max_deadlock_path_length = 0                      
network_deadlock_path_length_sum = 0                      
total_sb_vc_copy = 0                      
probe_link_utilisation = 0                      
system.ruby.network.check_probe_link_utilisation            0                      
disable_link_utilisation = 0                      
enable_link_utilisation = 0                      
check_probe_link_utilisation = 0                      
flit_link_utilisation = 259762                      
link_utilization = 259762                      

---------------------------------end------------------------------------


--------------------sim 27 -----------------

injection rate = 0.56


packets_injected = 20977                      
packets_received = 19957                      
average_packet_latency = 2943.276745                      
flits_injected = 30805                      
flits_received = 28225                      
average_flit_latency = 3384.980372                      
total_probes_sent = 0                      
total_disables_sent = 0                      
total_enables_sent = 0                      
total_check_probes_sent = 0                      
total_probes_dropped = 0                      
total_disables_dropped = 0                      
total_enables_dropped = 0                      
total_check_probes_dropped = 0                      
total_sb_switched_on = 0                      
network_max_deadlock_path_length = 0                      
network_deadlock_path_length_sum = 0                      
total_sb_vc_copy = 0                      
probe_link_utilisation = 0                      
system.ruby.network.check_probe_link_utilisation            0                      
disable_link_utilisation = 0                      
enable_link_utilisation = 0                      
check_probe_link_utilisation = 0                      
flit_link_utilisation = 259996                      
link_utilization = 259996                      

---------------------------------end------------------------------------


--------------------sim 28 -----------------

injection rate = 0.58


packets_injected = 21365                      
packets_received = 20292                      
average_packet_latency = 3085.515819                      
flits_injected = 31273                      
flits_received = 28431                      
average_flit_latency = 3435.480286                      
total_probes_sent = 0                      
total_disables_sent = 0                      
total_enables_sent = 0                      
total_check_probes_sent = 0                      
total_probes_dropped = 0                      
total_disables_dropped = 0                      
total_enables_dropped = 0                      
total_check_probes_dropped = 0                      
total_sb_switched_on = 0                      
network_max_deadlock_path_length = 0                      
network_deadlock_path_length_sum = 0                      
total_sb_vc_copy = 0                      
probe_link_utilisation = 0                      
system.ruby.network.check_probe_link_utilisation            0                      
disable_link_utilisation = 0                      
enable_link_utilisation = 0                      
check_probe_link_utilisation = 0                      
flit_link_utilisation = 267025                      
link_utilization = 267025                      

---------------------------------end------------------------------------


--------------------sim 29 -----------------

injection rate = 0.6


packets_injected = 21449                      
packets_received = 20348                      
average_packet_latency = 3198.944024                      
flits_injected = 31081                      
flits_received = 28102                      
average_flit_latency = 3516.837485                      
total_probes_sent = 0                      
total_disables_sent = 0                      
total_enables_sent = 0                      
total_check_probes_sent = 0                      
total_probes_dropped = 0                      
total_disables_dropped = 0                      
total_enables_dropped = 0                      
total_check_probes_dropped = 0                      
total_sb_switched_on = 0                      
network_max_deadlock_path_length = 0                      
network_deadlock_path_length_sum = 0                      
total_sb_vc_copy = 0                      
probe_link_utilisation = 0                      
system.ruby.network.check_probe_link_utilisation            0                      
disable_link_utilisation = 0                      
enable_link_utilisation = 0                      
check_probe_link_utilisation = 0                      
flit_link_utilisation = 264676                      
link_utilization = 264676                      

---------------------------------end------------------------------------


--------------------sim 30 -----------------

injection rate = 0.62


packets_injected = 21264                      
packets_received = 20211                      
average_packet_latency = 3174.515858                      
flits_injected = 31200                      
flits_received = 28358                      
average_flit_latency = 3560.144368                      
total_probes_sent = 0                      
total_disables_sent = 0                      
total_enables_sent = 0                      
total_check_probes_sent = 0                      
total_probes_dropped = 0                      
total_disables_dropped = 0                      
total_enables_dropped = 0                      
total_check_probes_dropped = 0                      
total_sb_switched_on = 0                      
network_max_deadlock_path_length = 0                      
network_deadlock_path_length_sum = 0                      
total_sb_vc_copy = 0                      
probe_link_utilisation = 0                      
system.ruby.network.check_probe_link_utilisation            0                      
disable_link_utilisation = 0                      
enable_link_utilisation = 0                      
check_probe_link_utilisation = 0                      
flit_link_utilisation = 262557                      
link_utilization = 262557                      

---------------------------------end------------------------------------


--------------------sim 31 -----------------

injection rate = 0.64


packets_injected = 21107                      
packets_received = 20093                      
average_packet_latency = 3266.826557                      
flits_injected = 30887                      
flits_received = 28291                      
average_flit_latency = 3559.450072                      
total_probes_sent = 0                      
total_disables_sent = 0                      
total_enables_sent = 0                      
total_check_probes_sent = 0                      
total_probes_dropped = 0                      
total_disables_dropped = 0                      
total_enables_dropped = 0                      
total_check_probes_dropped = 0                      
total_sb_switched_on = 0                      
network_max_deadlock_path_length = 0                      
network_deadlock_path_length_sum = 0                      
total_sb_vc_copy = 0                      
probe_link_utilisation = 0                      
system.ruby.network.check_probe_link_utilisation            0                      
disable_link_utilisation = 0                      
enable_link_utilisation = 0                      
check_probe_link_utilisation = 0                      
flit_link_utilisation = 259469                      
link_utilization = 259469                      

---------------------------------end------------------------------------


--------------------sim 32 -----------------

injection rate = 0.66


packets_injected = 21331                      
packets_received = 20258                      
average_packet_latency = 3299.187037                      
flits_injected = 31199                      
flits_received = 28355                      
average_flit_latency = 3603.608147                      
total_probes_sent = 0                      
total_disables_sent = 0                      
total_enables_sent = 0                      
total_check_probes_sent = 0                      
total_probes_dropped = 0                      
total_disables_dropped = 0                      
total_enables_dropped = 0                      
total_check_probes_dropped = 0                      
total_sb_switched_on = 0                      
network_max_deadlock_path_length = 0                      
network_deadlock_path_length_sum = 0                      
total_sb_vc_copy = 0                      
probe_link_utilisation = 0                      
system.ruby.network.check_probe_link_utilisation            0                      
disable_link_utilisation = 0                      
enable_link_utilisation = 0                      
check_probe_link_utilisation = 0                      
flit_link_utilisation = 266035                      
link_utilization = 266035                      

---------------------------------end------------------------------------


--------------------sim 33 -----------------

injection rate = 0.68


packets_injected = 21130                      
packets_received = 20059                      
average_packet_latency = 3427.983449                      
flits_injected = 31466                      
flits_received = 28642                      
average_flit_latency = 3718.384645                      
total_probes_sent = 0                      
total_disables_sent = 0                      
total_enables_sent = 0                      
total_check_probes_sent = 0                      
total_probes_dropped = 0                      
total_disables_dropped = 0                      
total_enables_dropped = 0                      
total_check_probes_dropped = 0                      
total_sb_switched_on = 0                      
network_max_deadlock_path_length = 0                      
network_deadlock_path_length_sum = 0                      
total_sb_vc_copy = 0                      
probe_link_utilisation = 0                      
system.ruby.network.check_probe_link_utilisation            0                      
disable_link_utilisation = 0                      
enable_link_utilisation = 0                      
check_probe_link_utilisation = 0                      
flit_link_utilisation = 267126                      
link_utilization = 267126                      

---------------------------------end------------------------------------


--------------------sim 34 -----------------

injection rate = 0.7


packets_injected = 21404                      
packets_received = 20398                      
average_packet_latency = 3374.966516                      
flits_injected = 31044                      
flits_received = 28517                      
average_flit_latency = 3683.331311                      
total_probes_sent = 0                      
total_disables_sent = 0                      
total_enables_sent = 0                      
total_check_probes_sent = 0                      
total_probes_dropped = 0                      
total_disables_dropped = 0                      
total_enables_dropped = 0                      
total_check_probes_dropped = 0                      
total_sb_switched_on = 0                      
network_max_deadlock_path_length = 0                      
network_deadlock_path_length_sum = 0                      
total_sb_vc_copy = 0                      
probe_link_utilisation = 0                      
system.ruby.network.check_probe_link_utilisation            0                      
disable_link_utilisation = 0                      
enable_link_utilisation = 0                      
check_probe_link_utilisation = 0                      
flit_link_utilisation = 261439                      
link_utilization = 261439                      

---------------------------------end------------------------------------

