
packets_injected = 169659                      
packets_received = 3375                      
average_packet_latency = 454.665185                      
flits_injected = 169659                      
flits_received = 3375                      
average_flit_latency = 454.665185                      
total_probes_sent = 0                      
total_disables_sent = 0                      
total_enables_sent = 0                      
total_check_probes_sent = 0                      
total_probes_dropped = 0                      
total_disables_dropped = 0                      
total_enables_dropped = 0                      
total_check_probes_dropped = 0                      
total_sb_switched_on = 0                      
network_max_deadlock_path_length = 0                      
network_deadlock_path_length_sum = 0                      
total_sb_vc_copy = 0                      
probe_link_utilisation = 0                      
system.ruby.network.check_probe_link_utilisation            0                      
disable_link_utilisation = 0                      
enable_link_utilisation = 0                      
check_probe_link_utilisation = 0                      
flit_link_utilisation = 177883                      
link_utilization = 177883                      
total_flits_dropped = 165934                      
average_hops = 1.322667                      
