%module(package="m5.internal") param_MemTraceProbe

%{
#include "sim/sim_object.hh"
#include "params/MemTraceProbe.hh"
#include <cstddef>
#include <cstddef>
#include <string>
#include "mem/probes/mem_trace.hh"
/**
  * This is a workaround for bug in swig. Prior to gcc 4.6.1 the STL
  * headers like vector, string, etc. used to automatically pull in
  * the cstddef header but starting with gcc 4.6.1 they no longer do.
  * This leads to swig generated a file that does not compile so we
  * explicitly include cstddef. Additionally, including version 2.0.4,
  * swig uses ptrdiff_t without the std:: namespace prefix which is
  * required with gcc 4.6.1. We explicitly provide access to it.
  */
#include <cstddef>
using std::ptrdiff_t;
%}

%include "std_string.i"

%import "python/m5/internal/param_BaseMemProbe.i"


// stop swig from creating/wrapping default ctor/dtor
%nodefault MemTraceProbe;
class MemTraceProbe
    : public BaseMemProbe
{
  public:
};

%include "params/MemTraceProbe.hh"
